newmtl material_1
d 1
Ns 1
Ni 0
Ka 0 0 0
Kd 1 1 1
Ks 1 1 1
Km 0
map_Kd /Maps/s4.jpg

newmtl material_1_cushions
d 1
Ns 1
Ni 0
Ka 0 0 0
Kd 1 1 1
Ks 1 1 1
Km 0
map_Kd /Maps/newMGM1.jpg

newmtl material_1_displays_cockpit
d 1
Ns 1
Ni 0
Ka 1 1 1
Kd 1 1 1
Ks 1 1 1
Km 0
map_Kd /Maps/sm4.jpg

newmtl material_2
d 1
Ns 1
Ni 0
Ka 1 1 1
Kd 1 1 1
Ks 1 1 1
Km 0
map_Kd /Maps/d17b.jpg

newmtl material_3
d 1
Ns 1
Ni 0
Ka 1 1 1
Kd 1 1 1
Ks 1 1 1
Km 0
map_Kd /Maps/d21.jpg

newmtl material_4
d 1
Ns 1
Ni 0
Ka 1 1 1
Kd 1 1 1
Ks 1 1 1
Km 0
map_Kd /Maps/d10.jpg

newmtl material_1_door
d 1
Ns 1
Ni 0
Ka 0 0 0
Kd 1 1 1
Ks 1 1 1
Km 0
map_Kd /Maps/door_mtl1_diffcol.jpg

newmtl material_1_floor
d 1
Ns 1
Ni 0
Ka 0 0 0
Kd 1 1 1
Ks 1 1 1
Km 0
map_Kd /Maps/4530717197.jpg

newmtl material_1_gray_interiors
d 1
Ns 1
Ni 0
Ka 0 0 0
Kd 0.27451 0.27451 0.27451
Ks 1 1 1
Km 0

newmtl material_1_inner_liner
d 1
Ns 1
Ni 0
Ka 0 0 0
Kd 1 1 1
Ks 1 1 1
Km 0
map_Kd /Maps/gj1.jpg

newmtl material_1_oven_glass
d 0.8
Ns 1
Ni 0
Ka 0 0 0
Kd 0 0 0
Ks 1 1 1
Km 0

newmtl material_1_propulsion
d 1
Ns 1
Ni 0
Ka 0 1 1
Kd 0.501961 1 1
Ks 1 1 1
Km 0

newmtl material_1_screens
d 1
Ns 1
Ni 0
Ka 1 1 1
Kd 1 1 1
Ks 1 1 1
Km 0
map_Kd /Maps/dr3.jpg

newmtl material_1_sink
d 1
Ns 1
Ni 0
Ka 0 0 0
Kd 1 1 1
Ks 1 1 1
Km 0

newmtl material_1_windows
d 0.8
Ns 1
Ni 0
Ka 0 0 0
Kd 0 0 0
Ks 1 1 1
Km 0

newmtl material_1_wood
d 1
Ns 1
Ni 0
Ka 0 0 0
Kd 1 1 1
Ks 1 1 1
Km 0
map_Kd /Maps/wood_mtl1_diffcol.jpg

newmtl default
d 1
Ns 1
Ni 0
Ka 0 0 0
Kd 1 1 1
Ks 1 1 1
Km 0
map_Kd /Maps/ddg1.jpg

